<svg width="267" height="50" viewBox="0 0 267 50" fill="none" xmlns="http://www.w3.org/2000/svg">
<path d="M42.285 43.7053C42.2585 43.626 42.2145 43.5644 42.1528 43.5291C42.0911 43.4851 42.0206 43.4675 41.9413 43.4675C41.862 43.4587 41.7826 43.4763 41.721 43.5203C41.6593 43.5644 41.6064 43.626 41.5711 43.7141L39.5882 48.5067C39.5794 48.5683 39.5706 48.6124 39.5706 48.63C39.5706 48.7269 39.597 48.8062 39.6587 48.8679C39.7116 48.9207 39.7997 48.956 39.9055 48.956C39.976 48.956 40.0465 48.9383 40.0994 48.8943C40.161 48.8502 40.2051 48.7974 40.2316 48.7181L40.7075 47.5728H43.1046L43.5893 48.7093C43.6246 48.7886 43.6686 48.8502 43.7303 48.8943C43.792 48.9383 43.8537 48.956 43.9242 48.956C44.0212 48.956 44.1005 48.9207 44.171 48.859C44.2415 48.7886 44.2767 48.7093 44.2767 48.6036C44.2767 48.5507 44.2679 48.5067 44.2503 48.4538L42.285 43.7053ZM40.9983 46.8504L41.8972 44.6832L42.805 46.8504H40.9983Z" fill="#08C6D2"/>
<path d="M50.9218 44.2075C51.0275 44.2075 51.1157 44.1722 51.1862 44.1106C51.2567 44.0489 51.2919 43.9608 51.2919 43.8551C51.2919 43.7494 51.2567 43.6613 51.1862 43.5908C51.1157 43.5203 51.0275 43.4939 50.9218 43.4939H48.225C48.1192 43.4939 48.0311 43.5291 47.9606 43.5996C47.8901 43.6701 47.8548 43.7582 47.8548 43.8639V48.5507C47.8548 48.6564 47.8901 48.7445 47.9606 48.815C48.0311 48.8855 48.1192 48.9207 48.225 48.9207H50.9218C51.0275 48.9207 51.1157 48.8855 51.1862 48.8238C51.2567 48.7621 51.2919 48.674 51.2919 48.5683C51.2919 48.4714 51.2567 48.3833 51.1862 48.3128C51.1157 48.2424 51.0275 48.2071 50.9218 48.2071H48.6216V46.4892H50.5781C50.6838 46.4892 50.772 46.454 50.8425 46.3923C50.913 46.3306 50.9482 46.2425 50.9482 46.1368C50.9482 46.0311 50.913 45.9518 50.8425 45.8813C50.772 45.8109 50.6838 45.7844 50.5781 45.7844H48.6216V44.1987H50.9218V44.2075Z" fill="#08C6D2"/>
<path d="M57.8048 46.1368C57.5492 46.0223 57.2143 45.9166 56.8177 45.8285C56.4123 45.7316 56.1127 45.6259 55.91 45.4849C55.7073 45.3528 55.6015 45.1589 55.6015 44.9035C55.6015 44.6744 55.7073 44.4806 55.91 44.3396C56.1127 44.1987 56.3859 44.1282 56.7384 44.1282C56.9587 44.1282 57.179 44.1722 57.417 44.2691C57.6549 44.3661 57.84 44.4718 57.9722 44.6127C58.0163 44.6568 58.078 44.6744 58.1485 44.6744C58.2454 44.6744 58.3335 44.6392 58.404 44.5687C58.4746 44.4982 58.5098 44.4101 58.5098 44.322C58.5098 44.2075 58.4481 44.0929 58.3335 43.9872C58.1573 43.8198 57.9282 43.6789 57.6461 43.5732C57.3641 43.4675 57.0557 43.4146 56.7384 43.4146C56.377 43.4146 56.0598 43.4763 55.7778 43.5996C55.4957 43.7229 55.2754 43.8991 55.108 44.1282C54.9493 44.3572 54.87 44.6215 54.87 44.9299C54.87 45.3704 55.011 45.714 55.3019 45.9606C55.5927 46.2073 55.9981 46.3835 56.5357 46.498C56.9852 46.5949 57.32 46.7183 57.5404 46.868C57.7607 47.0178 57.8753 47.2204 57.8753 47.4935C57.8753 47.7226 57.7607 47.9076 57.5404 48.0574C57.3112 48.2071 57.038 48.2864 56.7119 48.2864C56.4299 48.2864 56.1832 48.2424 55.9628 48.1543C55.7425 48.0662 55.531 47.9252 55.3195 47.7314C55.2578 47.6785 55.1785 47.6433 55.0903 47.6433C54.9934 47.6433 54.9053 47.6785 54.8348 47.7578C54.7643 47.8371 54.729 47.9164 54.729 48.0133C54.729 48.1366 54.7819 48.2424 54.8876 48.3305C55.152 48.5683 55.4252 48.7445 55.7161 48.8502C56.0069 48.956 56.3418 49.0088 56.7208 49.0088C57.0645 49.0088 57.3817 48.9471 57.6726 48.815C57.9634 48.6828 58.1925 48.5067 58.36 48.2688C58.5274 48.0309 58.6156 47.7666 58.6156 47.4671C58.6156 47.1235 58.5451 46.8504 58.404 46.639C58.2542 46.4187 58.0603 46.2513 57.8048 46.1368Z" fill="#08C6D2"/>
<path d="M65.8951 43.4939H62.3523C62.2465 43.4939 62.1584 43.5291 62.0879 43.5908C62.0174 43.6525 61.9821 43.7406 61.9821 43.8463C61.9821 43.952 62.0174 44.0401 62.0879 44.1018C62.1584 44.1634 62.2465 44.1987 62.3523 44.1987H63.7271V48.5507C63.7271 48.6564 63.7624 48.7445 63.8417 48.815C63.9122 48.8855 64.0091 48.9207 64.1237 48.9207C64.2383 48.9207 64.3352 48.8855 64.4057 48.815C64.4762 48.7445 64.5203 48.6564 64.5203 48.5507V44.1987H65.9039C66.0097 44.1987 66.1067 44.1634 66.1683 44.1018C66.2388 44.0401 66.2741 43.952 66.2741 43.8463C66.2741 43.7406 66.2388 43.6525 66.1683 43.582C66.089 43.5203 66.0009 43.4939 65.8951 43.4939Z" fill="#08C6D2"/>
<path d="M73.8621 43.4939C73.7564 43.4939 73.6682 43.5291 73.5889 43.5996C73.5096 43.6701 73.4744 43.7582 73.4744 43.8639V45.8197H70.7247V43.8639C70.7247 43.7582 70.6894 43.6701 70.6101 43.5996C70.5308 43.5291 70.4427 43.4939 70.3457 43.4939C70.2312 43.4939 70.143 43.5291 70.0637 43.5996C69.9932 43.6701 69.9579 43.7582 69.9579 43.8639V48.5419C69.9579 48.6476 69.9932 48.7445 70.0637 48.815C70.1342 48.8855 70.2223 48.9207 70.3369 48.9207C70.4427 48.9207 70.5308 48.8855 70.6101 48.815C70.6894 48.7445 70.7247 48.6564 70.7247 48.5419V46.5333H73.4744V48.5419C73.4744 48.6476 73.5096 48.7445 73.5889 48.815C73.6594 48.8855 73.7564 48.9207 73.8533 48.9207C73.9679 48.9207 74.0648 48.8855 74.1353 48.815C74.2058 48.7445 74.2411 48.6564 74.2499 48.5419V43.8639C74.2499 43.7582 74.2146 43.6701 74.1441 43.5996C74.0648 43.5291 73.9767 43.4939 73.8621 43.4939Z" fill="#08C6D2"/>
<path d="M81.3973 44.2075C81.503 44.2075 81.5912 44.1722 81.6617 44.1106C81.7322 44.0489 81.7674 43.9608 81.7674 43.8551C81.7674 43.7494 81.7322 43.6613 81.6617 43.5908C81.5912 43.5203 81.503 43.4939 81.3973 43.4939H78.7005C78.5947 43.4939 78.5066 43.5291 78.4361 43.5996C78.3656 43.6701 78.3303 43.7582 78.3303 43.8639V48.5507C78.3303 48.6564 78.3656 48.7445 78.4361 48.815C78.5066 48.8855 78.5947 48.9207 78.7005 48.9207H81.3973C81.503 48.9207 81.5912 48.8855 81.6617 48.8238C81.7322 48.7621 81.7674 48.674 81.7674 48.5683C81.7674 48.4714 81.7322 48.3833 81.6617 48.3128C81.5912 48.2424 81.503 48.2071 81.3973 48.2071H79.0971V46.4892H81.0536C81.1593 46.4892 81.2475 46.454 81.318 46.3923C81.3885 46.3306 81.4237 46.2425 81.4237 46.1368C81.4237 46.0311 81.3885 45.9518 81.318 45.8813C81.2475 45.8109 81.1593 45.7844 81.0536 45.7844H79.0971V44.1987H81.3973V44.2075Z" fill="#08C6D2"/>
<path d="M89.0558 43.4939H85.513C85.4072 43.4939 85.3191 43.5291 85.2486 43.5908C85.1781 43.6525 85.1428 43.7406 85.1428 43.8463C85.1428 43.952 85.1781 44.0401 85.2486 44.1018C85.3191 44.1634 85.4072 44.1987 85.513 44.1987H86.8878V48.5507C86.8878 48.6564 86.9231 48.7445 87.0024 48.815C87.0729 48.8855 87.1698 48.9207 87.2844 48.9207C87.399 48.9207 87.4959 48.8855 87.5664 48.815C87.6369 48.7445 87.681 48.6564 87.681 48.5507V44.1987H89.0646C89.1704 44.1987 89.2585 44.1634 89.329 44.1018C89.3995 44.0401 89.4348 43.952 89.4348 43.8463C89.4348 43.7406 89.3995 43.6525 89.329 43.582C89.2585 43.5203 89.1704 43.4939 89.0558 43.4939Z" fill="#08C6D2"/>
<path d="M93.5064 43.4939C93.3918 43.4939 93.3037 43.5291 93.2244 43.5996C93.1539 43.6701 93.1186 43.7582 93.1186 43.8639V48.5419C93.1186 48.6476 93.1539 48.7445 93.2244 48.815C93.2949 48.8855 93.383 48.9207 93.4976 48.9207C93.6033 48.9207 93.6915 48.8855 93.7708 48.815C93.8501 48.7445 93.8854 48.6564 93.8854 48.5419V43.8639C93.8854 43.7582 93.8501 43.6701 93.7708 43.5996C93.6915 43.5291 93.6033 43.4939 93.5064 43.4939Z" fill="#08C6D2"/>
<path d="M101.658 47.9428C101.588 47.9428 101.517 47.9604 101.456 47.9869C101.147 48.1719 100.795 48.2688 100.416 48.2688C100.046 48.2688 99.7108 48.1895 99.4023 48.0221C99.1027 47.8635 98.8647 47.6257 98.6973 47.3085C98.5298 47.0002 98.4417 46.6302 98.4417 46.1985C98.4417 45.8021 98.521 45.4497 98.6885 45.1413C98.8559 44.833 99.0851 44.5951 99.3847 44.4277C99.6843 44.2603 100.028 44.1722 100.416 44.1722C100.786 44.1722 101.139 44.2603 101.456 44.4453C101.526 44.4806 101.597 44.4982 101.667 44.4982C101.773 44.4982 101.861 44.4542 101.923 44.3749C101.985 44.2956 102.02 44.2163 102.02 44.1194C102.02 43.9784 101.958 43.8727 101.835 43.811C101.394 43.5644 100.927 43.441 100.425 43.441C99.9047 43.441 99.4288 43.5644 99.0057 43.8022C98.5827 44.0401 98.2566 44.3749 98.0099 44.7977C97.7719 45.2206 97.6485 45.6875 97.6485 46.2161C97.6485 46.7887 97.7719 47.2821 98.0275 47.705C98.2831 48.1278 98.618 48.4538 99.041 48.674C99.464 48.8943 99.9223 49.0088 100.425 49.0088C100.663 49.0088 100.909 48.9736 101.165 48.9031C101.412 48.8326 101.641 48.7445 101.844 48.63C101.905 48.6036 101.949 48.5595 101.976 48.4978C102.011 48.445 102.029 48.3833 102.029 48.3216C102.029 48.2335 102.002 48.1543 101.94 48.075C101.87 47.9869 101.773 47.9428 101.658 47.9428Z" fill="#08C6D2"/>
<path d="M113.38 46.1368C113.124 46.0223 112.789 45.9166 112.393 45.8285C111.987 45.7316 111.688 45.6259 111.485 45.4849C111.282 45.3528 111.177 45.1589 111.177 44.9035C111.177 44.6744 111.282 44.4806 111.485 44.3396C111.688 44.1987 111.961 44.1282 112.313 44.1282C112.534 44.1282 112.754 44.1722 113.001 44.2691C113.239 44.3661 113.424 44.4718 113.556 44.6127C113.6 44.6568 113.662 44.6744 113.732 44.6744C113.829 44.6744 113.917 44.6392 113.988 44.5687C114.058 44.4982 114.094 44.4101 114.094 44.322C114.094 44.2075 114.032 44.0929 113.917 43.9872C113.741 43.8198 113.512 43.6789 113.23 43.5732C112.948 43.4675 112.64 43.4146 112.322 43.4146C111.97 43.4146 111.644 43.4763 111.362 43.5996C111.08 43.7229 110.859 43.8991 110.692 44.1282C110.533 44.3572 110.454 44.6215 110.454 44.9299C110.454 45.3704 110.595 45.714 110.886 45.9606C111.177 46.2073 111.582 46.3835 112.12 46.498C112.569 46.5949 112.904 46.7183 113.124 46.868C113.345 47.0178 113.459 47.2204 113.459 47.4935C113.459 47.7226 113.345 47.9076 113.124 48.0574C112.895 48.2071 112.622 48.2864 112.296 48.2864C112.014 48.2864 111.767 48.2424 111.547 48.1543C111.326 48.0662 111.115 47.9252 110.903 47.7314C110.842 47.6785 110.771 47.6433 110.674 47.6433C110.577 47.6433 110.489 47.6785 110.419 47.7578C110.348 47.8371 110.313 47.9164 110.313 48.0133C110.313 48.1366 110.366 48.2424 110.472 48.3305C110.736 48.5683 111.009 48.7445 111.3 48.8502C111.591 48.956 111.926 49.0088 112.296 49.0088C112.64 49.0088 112.957 48.9471 113.248 48.815C113.538 48.6828 113.768 48.5067 113.935 48.2688C114.102 48.0309 114.182 47.7666 114.182 47.4671C114.182 47.1235 114.111 46.8504 113.97 46.639C113.838 46.4187 113.635 46.2513 113.38 46.1368Z" fill="#08C6D2"/>
<path d="M121.805 43.4851C121.699 43.4851 121.611 43.5203 121.55 43.5908C121.488 43.6613 121.453 43.7494 121.453 43.8551V46.8328C121.453 47.1059 121.391 47.3438 121.259 47.5552C121.135 47.7666 120.959 47.934 120.748 48.0574C120.536 48.1807 120.307 48.2336 120.06 48.2336C119.822 48.2336 119.602 48.1719 119.39 48.0574C119.179 47.934 119.02 47.7754 118.897 47.5552C118.773 47.3438 118.712 47.0971 118.712 46.8328V43.8551C118.712 43.7494 118.676 43.6613 118.597 43.5908C118.518 43.5203 118.439 43.4851 118.342 43.4851C118.227 43.4851 118.139 43.5203 118.06 43.5908C117.989 43.6613 117.954 43.7494 117.954 43.8551V46.8328C117.954 47.238 118.042 47.6081 118.227 47.934C118.412 48.26 118.659 48.5155 118.976 48.7005C119.293 48.8855 119.655 48.9736 120.06 48.9736C120.457 48.9736 120.818 48.8855 121.135 48.7005C121.453 48.5155 121.699 48.26 121.884 47.934C122.069 47.6081 122.158 47.238 122.158 46.8328V43.8551C122.158 43.7494 122.122 43.6613 122.061 43.5908C121.999 43.5203 121.911 43.4851 121.805 43.4851Z" fill="#08C6D2"/>
<path d="M130.371 48.2952C130.283 48.2512 130.222 48.1719 130.204 48.0662C130.177 47.9604 130.151 47.7578 130.133 47.4671C130.125 47.238 130.063 47.0266 129.948 46.8504C129.834 46.6742 129.684 46.5421 129.499 46.4363C129.746 46.313 129.94 46.128 130.098 45.8725C130.257 45.617 130.327 45.3527 130.327 45.062C130.327 44.7625 130.257 44.4894 130.116 44.2515C129.975 44.0137 129.79 43.8198 129.561 43.6877C129.331 43.5467 129.067 43.4851 128.794 43.4851H126.617C126.511 43.4851 126.423 43.5203 126.353 43.5908C126.282 43.6613 126.247 43.7494 126.247 43.8551V48.5419C126.247 48.6476 126.291 48.7357 126.379 48.8062C126.467 48.8767 126.564 48.9119 126.688 48.9119C126.784 48.9119 126.864 48.8767 126.925 48.8062C126.987 48.7357 127.022 48.6476 127.022 48.5419V46.7976H128.591C128.838 46.7976 129.041 46.8592 129.199 46.9826C129.358 47.1059 129.428 47.2997 129.428 47.5552C129.428 47.934 129.481 48.2247 129.578 48.4274C129.675 48.6212 129.807 48.7621 129.957 48.8502C130.028 48.8943 130.107 48.9119 130.204 48.9119C130.301 48.9119 130.389 48.8855 130.459 48.8326C130.53 48.7798 130.565 48.7005 130.565 48.5947C130.565 48.5419 130.548 48.4802 130.521 48.4274C130.495 48.3745 130.424 48.3393 130.371 48.2952ZM129.146 46.0047C129.032 46.1016 128.908 46.1456 128.776 46.1632H127.005V44.2075H128.75C128.97 44.2075 129.155 44.2956 129.305 44.4718C129.455 44.648 129.534 44.8506 129.534 45.1061C129.534 45.2999 129.499 45.4761 129.428 45.6347C129.349 45.7844 129.261 45.9078 129.146 46.0047Z" fill="#08C6D2"/>
<path d="M138.215 46.0663H136.849C136.743 46.0663 136.655 46.1016 136.585 46.1721C136.514 46.2425 136.479 46.3306 136.479 46.4364C136.479 46.5421 136.514 46.6302 136.585 46.6918C136.655 46.7623 136.743 46.7976 136.849 46.7976H137.792V48.0309C137.651 48.1014 137.483 48.1543 137.29 48.1895C137.096 48.2336 136.911 48.2512 136.734 48.2512C136.364 48.2512 136.021 48.1631 135.712 47.9781C135.404 47.7931 135.166 47.5464 134.981 47.2292C134.804 46.9209 134.716 46.5685 134.716 46.1985C134.716 45.8197 134.804 45.4761 134.981 45.1589C135.157 44.8418 135.404 44.5951 135.712 44.4189C136.021 44.2339 136.355 44.1458 136.734 44.1458C137.078 44.1458 137.422 44.2251 137.757 44.3749C137.818 44.4101 137.88 44.4277 137.959 44.4277C138.056 44.4277 138.144 44.3925 138.215 44.3132C138.285 44.2339 138.321 44.1458 138.321 44.0489C138.321 43.9872 138.303 43.9256 138.277 43.8815C138.241 43.8287 138.197 43.7846 138.136 43.7494C137.942 43.6349 137.73 43.5468 137.492 43.4939C137.254 43.441 136.999 43.4058 136.743 43.4058C136.223 43.4058 135.747 43.5291 135.324 43.7758C134.892 44.0225 134.549 44.3573 134.302 44.7889C134.055 45.2118 133.932 45.6875 133.932 46.1985C133.932 46.7095 134.055 47.1764 134.302 47.6081C134.549 48.0309 134.892 48.3745 135.324 48.6212C135.756 48.8679 136.232 48.9912 136.743 48.9912C137.043 48.9912 137.334 48.9471 137.616 48.859C137.898 48.7709 138.162 48.6564 138.4 48.4978C138.523 48.4186 138.585 48.3128 138.585 48.1719V46.4275C138.585 46.3218 138.55 46.2337 138.479 46.1633C138.409 46.1016 138.321 46.0663 138.215 46.0663Z" fill="#08C6D2"/>
<path d="M145.486 44.2075C145.592 44.2075 145.68 44.1722 145.75 44.1106C145.821 44.0489 145.856 43.9608 145.856 43.8551C145.856 43.7494 145.821 43.6613 145.75 43.5908C145.68 43.5203 145.592 43.4939 145.486 43.4939H142.789C142.683 43.4939 142.595 43.5291 142.525 43.5996C142.454 43.6701 142.419 43.7582 142.419 43.8639V48.5507C142.419 48.6564 142.454 48.7445 142.525 48.815C142.595 48.8855 142.683 48.9207 142.789 48.9207H145.486C145.592 48.9207 145.68 48.8855 145.75 48.8238C145.821 48.7621 145.856 48.674 145.856 48.5683C145.856 48.4714 145.821 48.3833 145.75 48.3128C145.68 48.2424 145.592 48.2071 145.486 48.2071H143.186V46.4892H145.142C145.248 46.4892 145.336 46.454 145.406 46.3923C145.477 46.3306 145.512 46.2425 145.512 46.1368C145.512 46.0311 145.477 45.9518 145.406 45.8813C145.336 45.8109 145.248 45.7844 145.142 45.7844H143.186V44.1987H145.486V44.2075Z" fill="#08C6D2"/>
<path d="M153.761 48.2952C153.673 48.2512 153.611 48.1719 153.594 48.0662C153.567 47.9604 153.541 47.7578 153.523 47.4671C153.514 47.238 153.453 47.0266 153.338 46.8504C153.224 46.6742 153.074 46.5421 152.88 46.4363C153.127 46.313 153.321 46.128 153.479 45.8725C153.638 45.617 153.708 45.3527 153.708 45.062C153.708 44.7625 153.638 44.4894 153.497 44.2515C153.356 44.0137 153.171 43.8198 152.942 43.6877C152.712 43.5467 152.457 43.4851 152.175 43.4851H149.998C149.892 43.4851 149.804 43.5203 149.734 43.5908C149.663 43.6613 149.628 43.7494 149.628 43.8551V48.5419C149.628 48.6476 149.672 48.7357 149.76 48.8062C149.848 48.8767 149.945 48.9119 150.069 48.9119C150.165 48.9119 150.245 48.8767 150.306 48.8062C150.368 48.7357 150.403 48.6476 150.403 48.5419V46.7976H151.972C152.219 46.7976 152.422 46.8592 152.58 46.9826C152.739 47.1059 152.809 47.2997 152.809 47.5552C152.809 47.934 152.862 48.2247 152.959 48.4274C153.056 48.6212 153.188 48.7621 153.338 48.8502C153.409 48.8943 153.488 48.9119 153.585 48.9119C153.682 48.9119 153.77 48.8855 153.841 48.8326C153.911 48.7798 153.946 48.7005 153.946 48.5947C153.946 48.5419 153.929 48.4802 153.902 48.4274C153.876 48.3745 153.814 48.3393 153.761 48.2952ZM152.527 46.0047C152.413 46.1016 152.289 46.1456 152.157 46.1632H150.386V44.2075H152.131C152.351 44.2075 152.536 44.2956 152.686 44.4718C152.836 44.648 152.915 44.8506 152.915 45.1061C152.915 45.2999 152.88 45.4761 152.809 45.6347C152.739 45.7844 152.651 45.9078 152.527 46.0047Z" fill="#08C6D2"/>
<path d="M160.909 43.4675C160.785 43.4675 160.679 43.5291 160.6 43.6437L159.199 45.6523L157.745 43.6348C157.665 43.5203 157.56 43.4675 157.445 43.4675C157.348 43.4675 157.26 43.5027 157.172 43.5732C157.093 43.6437 157.048 43.7317 157.048 43.8375C157.048 43.9344 157.084 44.0225 157.154 44.1194L158.811 46.3571V48.5419C158.811 48.6476 158.846 48.7357 158.917 48.8062C158.987 48.8767 159.075 48.9119 159.181 48.9119C159.278 48.9119 159.366 48.8767 159.437 48.8062C159.507 48.7357 159.543 48.6476 159.543 48.5419V46.4275L161.208 44.0753C161.252 43.996 161.279 43.9168 161.279 43.8463C161.279 43.7406 161.243 43.6525 161.173 43.582C161.085 43.5027 161.006 43.4675 160.909 43.4675Z" fill="#08C6D2"/>
<path d="M173.688 43.4939C173.582 43.4939 173.494 43.5291 173.414 43.5996C173.335 43.6701 173.3 43.7582 173.3 43.8639V45.8197H170.55V43.8639C170.55 43.7582 170.515 43.6701 170.435 43.5996C170.356 43.5291 170.268 43.4939 170.171 43.4939C170.056 43.4939 169.96 43.5291 169.889 43.5996C169.819 43.6701 169.783 43.7582 169.783 43.8639V48.5419C169.783 48.6476 169.819 48.7445 169.889 48.815C169.96 48.8855 170.048 48.9207 170.162 48.9207C170.268 48.9207 170.356 48.8855 170.435 48.815C170.515 48.7445 170.55 48.6564 170.55 48.5419V46.5333H173.3V48.5419C173.3 48.6476 173.335 48.7445 173.414 48.815C173.485 48.8855 173.582 48.9207 173.679 48.9207C173.793 48.9207 173.881 48.8855 173.961 48.815C174.031 48.7445 174.066 48.6564 174.075 48.5419V43.8639C174.075 43.7582 174.04 43.6701 173.97 43.5996C173.899 43.5291 173.802 43.4939 173.688 43.4939Z" fill="#08C6D2"/>
<path d="M181.813 43.7846C181.417 43.5379 180.967 43.4146 180.465 43.4146C179.962 43.4146 179.513 43.5379 179.116 43.7846C178.72 44.0313 178.402 44.3661 178.182 44.7889C177.962 45.2118 177.847 45.6875 177.847 46.2073C177.847 46.7271 177.962 47.2028 178.182 47.6257C178.402 48.0485 178.72 48.3833 179.116 48.63C179.513 48.8767 179.962 49 180.465 49C180.967 49 181.417 48.8767 181.813 48.63C182.21 48.3833 182.518 48.0485 182.747 47.6257C182.976 47.2028 183.082 46.7271 183.082 46.2073C183.082 45.6875 182.968 45.2118 182.747 44.7889C182.518 44.3661 182.21 44.0313 181.813 43.7846ZM182.051 47.2557C181.892 47.5728 181.681 47.8107 181.408 47.9957C181.126 48.1719 180.817 48.26 180.465 48.26C180.112 48.26 179.795 48.1719 179.522 47.9957C179.24 47.8195 179.028 47.5728 178.87 47.2557C178.711 46.9473 178.64 46.5949 178.64 46.2073C178.64 45.8197 178.72 45.4585 178.87 45.1501C179.028 44.8418 179.24 44.5951 179.522 44.4189C179.795 44.2427 180.112 44.1546 180.465 44.1546C180.817 44.1546 181.135 44.2427 181.408 44.4189C181.681 44.5951 181.901 44.8418 182.051 45.1589C182.21 45.4673 182.28 45.8197 182.28 46.2073C182.28 46.5949 182.21 46.9473 182.051 47.2557Z" fill="#08C6D2"/>
<path d="M189.586 46.1368C189.331 46.0223 188.996 45.9166 188.599 45.8285C188.194 45.7316 187.894 45.6259 187.691 45.4849C187.489 45.3528 187.383 45.1589 187.383 44.9035C187.383 44.6744 187.489 44.4806 187.691 44.3396C187.894 44.1987 188.167 44.1282 188.52 44.1282C188.74 44.1282 188.96 44.1722 189.207 44.2691C189.445 44.3661 189.63 44.4718 189.762 44.6127C189.807 44.6568 189.868 44.6744 189.939 44.6744C190.036 44.6744 190.124 44.6392 190.194 44.5687C190.265 44.4982 190.3 44.4101 190.3 44.322C190.3 44.2075 190.238 44.0929 190.124 43.9872C189.948 43.8198 189.718 43.6789 189.436 43.5732C189.154 43.4675 188.846 43.4146 188.529 43.4146C188.176 43.4146 187.85 43.4763 187.568 43.5996C187.286 43.7229 187.057 43.8991 186.898 44.1282C186.74 44.3572 186.66 44.6215 186.66 44.9299C186.66 45.3704 186.801 45.714 187.092 45.9606C187.383 46.2073 187.788 46.3835 188.326 46.498C188.775 46.5949 189.11 46.7183 189.331 46.868C189.551 47.0178 189.666 47.2204 189.666 47.4935C189.666 47.7226 189.551 47.9076 189.331 48.0574C189.102 48.2071 188.828 48.2864 188.502 48.2864C188.22 48.2864 187.973 48.2424 187.753 48.1543C187.533 48.0662 187.321 47.9252 187.11 47.7314C187.048 47.6785 186.978 47.6433 186.881 47.6433C186.784 47.6433 186.696 47.6785 186.625 47.7578C186.555 47.8371 186.519 47.9164 186.519 48.0133C186.519 48.1366 186.572 48.2424 186.678 48.3305C186.942 48.5683 187.216 48.7445 187.506 48.8502C187.797 48.956 188.132 49.0088 188.502 49.0088C188.846 49.0088 189.163 48.9471 189.454 48.815C189.745 48.6828 189.974 48.5067 190.141 48.2688C190.309 48.0309 190.388 47.7666 190.388 47.4671C190.388 47.1235 190.318 46.8504 190.177 46.639C190.044 46.4187 189.842 46.2513 189.586 46.1368Z" fill="#08C6D2"/>
<path d="M197.095 43.7141C196.857 43.5644 196.61 43.4939 196.337 43.4939H194.539C194.433 43.4939 194.345 43.5291 194.275 43.5996C194.204 43.6701 194.169 43.7582 194.169 43.8639V48.5507C194.169 48.6564 194.204 48.7445 194.266 48.815C194.328 48.8855 194.416 48.9207 194.53 48.9207C194.636 48.9207 194.715 48.8855 194.786 48.815C194.856 48.7445 194.883 48.6564 194.883 48.5507V46.8328H196.337C196.61 46.8328 196.866 46.7623 197.095 46.6037C197.324 46.454 197.509 46.2513 197.65 45.9871C197.791 45.7316 197.853 45.4497 197.853 45.1413C197.853 44.833 197.782 44.5599 197.65 44.3044C197.509 44.0577 197.324 43.8639 197.095 43.7141ZM197.007 45.6347C196.936 45.7844 196.839 45.9078 196.725 45.9959C196.601 46.084 196.478 46.128 196.337 46.128H194.883V44.2075H196.337C196.549 44.2075 196.734 44.2956 196.883 44.4806C197.033 44.6656 197.113 44.8858 197.113 45.1501C197.104 45.3175 197.068 45.4849 197.007 45.6347Z" fill="#08C6D2"/>
<path d="M201.995 43.4939C201.88 43.4939 201.783 43.5291 201.713 43.5996C201.642 43.6701 201.607 43.7582 201.607 43.8639V48.5419C201.607 48.6476 201.642 48.7445 201.713 48.815C201.783 48.8855 201.872 48.9207 201.986 48.9207C202.092 48.9207 202.18 48.8855 202.259 48.815C202.339 48.7445 202.374 48.6564 202.374 48.5419V43.8639C202.374 43.7582 202.339 43.6701 202.259 43.5996C202.189 43.5291 202.101 43.4939 201.995 43.4939Z" fill="#08C6D2"/>
<path d="M209.98 43.4939H206.437C206.331 43.4939 206.234 43.5291 206.172 43.5908C206.102 43.6525 206.067 43.7406 206.067 43.8463C206.067 43.952 206.102 44.0401 206.172 44.1018C206.243 44.1634 206.331 44.1987 206.437 44.1987H207.812V48.5507C207.812 48.6564 207.847 48.7445 207.926 48.815C207.997 48.8855 208.094 48.9207 208.208 48.9207C208.323 48.9207 208.42 48.8855 208.49 48.815C208.561 48.7445 208.605 48.6564 208.605 48.5507V44.1987H209.988C210.094 44.1987 210.182 44.1634 210.253 44.1018C210.323 44.0401 210.359 43.952 210.359 43.8463C210.359 43.7406 210.323 43.6525 210.253 43.582C210.173 43.5203 210.085 43.4939 209.98 43.4939Z" fill="#08C6D2"/>
<path d="M215.849 43.7053C215.823 43.626 215.779 43.5644 215.717 43.5291C215.655 43.4851 215.585 43.4675 215.505 43.4675C215.426 43.4587 215.347 43.4763 215.285 43.5203C215.223 43.5644 215.17 43.626 215.135 43.7141L213.161 48.5067C213.152 48.5683 213.143 48.6124 213.143 48.63C213.143 48.7269 213.17 48.8062 213.232 48.8679C213.284 48.9207 213.373 48.956 213.478 48.956C213.549 48.956 213.619 48.9383 213.672 48.8943C213.734 48.8502 213.778 48.7974 213.804 48.7181L214.28 47.5728H216.678L217.153 48.7093C217.189 48.7886 217.242 48.8502 217.294 48.8943C217.356 48.9383 217.418 48.956 217.488 48.956C217.585 48.956 217.665 48.9207 217.735 48.859C217.806 48.7886 217.841 48.7093 217.841 48.6036C217.841 48.5507 217.832 48.5067 217.814 48.4538L215.849 43.7053ZM214.571 46.8504L215.47 44.6832L216.378 46.8504H214.571Z" fill="#08C6D2"/>
<path d="M224.415 48.1983H222.186V43.8639C222.186 43.7582 222.15 43.6701 222.071 43.5996C222.001 43.5291 221.904 43.4939 221.807 43.4939C221.692 43.4939 221.604 43.5291 221.525 43.5996C221.454 43.6701 221.419 43.7582 221.419 43.8639V48.5507C221.419 48.6564 221.454 48.7445 221.525 48.815C221.595 48.8855 221.683 48.9207 221.789 48.9207H224.415C224.521 48.9207 224.609 48.8855 224.68 48.8238C224.75 48.7533 224.786 48.674 224.786 48.5683C224.786 48.4626 224.75 48.3745 224.68 48.304C224.609 48.2335 224.521 48.1983 224.415 48.1983Z" fill="#08C6D2"/>
<path d="M267 0H263.889V31.6888H267V0Z" fill="#08C6D2"/>
<path d="M68.0015 0L55.7601 31.6888H58.9593L66.045 13.1266L66.4151 12.1223C67.4374 9.3648 68.3452 6.9333 69.3146 4.16703C70.0637 6.28137 70.7599 8.17548 71.5443 10.3163L79.5377 31.6888H82.8602L70.5572 0H68.0015Z" fill="#08C6D2"/>
<path d="M122.528 19.7868C122.528 22.1214 122.598 24.3679 122.695 26.6936L119.919 22.2711L105.272 0H102.319V31.6888H105.316V11.6553C105.316 9.40003 105.245 7.25045 105.157 5.02157L107.933 9.53218L122.581 31.68H125.533V0H122.545V19.7868H122.528Z" fill="#08C6D2"/>
<path d="M162.424 14.915L158.194 13.1442C154.325 11.5144 152.712 10.3955 152.712 7.66451C152.712 4.63394 155.277 2.74865 159.402 2.74865C162.944 2.74865 165.271 4.33441 166.602 5.6735L167.025 6.09637L168.937 3.99083L168.549 3.6032C167.474 2.5196 164.416 0 159.393 0C153.7 0 149.725 3.19795 149.725 7.77904C149.725 12.272 153.488 14.3864 157.172 15.8576L161.296 17.5755C164.698 18.9851 166.778 20.0158 166.778 23.4516C166.778 26.8346 163.905 28.9401 159.287 28.9401C155.779 28.9401 152.58 27.5482 150.271 25.011L149.848 24.544L147.795 26.7817L148.183 27.1694C151.179 30.1647 154.916 31.68 159.287 31.68C165.456 31.68 169.757 28.2442 169.757 23.3283C169.757 18.3155 166.849 16.7474 162.424 14.915Z" fill="#08C6D2"/>
<path d="M195.006 0H191.895V31.6888H195.006V0Z" fill="#08C6D2"/>
<path d="M233.114 17.4257L233.096 17.3993C238.358 16.5624 241.354 13.4173 241.354 8.66882C241.354 2.91604 237.529 0 229.994 0H220.123V2.81032H229.395C235.599 2.81032 238.243 4.56347 238.243 8.66882C238.243 12.8711 235.432 14.8269 229.395 14.8269H220.123V31.6888H223.234V17.6372H229.58L238.816 31.6888H242.394L233.114 17.4257Z" fill="#08C6D2"/>
<path d="M41.8796 0.378821C41.5183 1.28623 33.9214 20.6589 31.8327 26.9315C30.0172 20.6149 24.324 0.660733 24.2623 0.431679L24.1389 0H21.2042L21.0808 0.431679C21.0191 0.651924 15.3171 20.3065 13.5192 26.7905C11.3424 20.377 3.75436 1.27742 3.40184 0.378821L3.25201 0H0L12.0298 31.6888H14.8676L14.991 31.2571C15.2642 30.3321 20.8869 10.9506 22.6143 4.76609C24.3504 10.9417 30.0172 30.3233 30.2904 31.2571L30.4138 31.6888H33.1899L45.158 0H42.0294L41.8796 0.378821Z" fill="#08C6D2"/>
</svg>
